FIFO/FIFO_Memory/FIFO_Memory.sim/sim_1/behav/xsim/dump.vcd
$date
   Wed Apr 10 11:24:09 2024
$end

$version
  2023.2
  $dumpfile ("dump.vcd") 
$end

$timescale
  1ps
$end

$scope module tb $end
$var reg 32 ! env $end
$scope module fif $end
$var reg 1 " clock $end
$var reg 1 # rd $end
$var reg 1 $ wr $end
$var reg 1 % full $end
$var reg 1 & empty $end
$var reg 8 ' data_in [7:0] $end
$var reg 8 ( data_out [7:0] $end
$var reg 1 ) rst $end
$upscope $end
$scope module dut $end
$var wire 1 * clk $end
$var wire 1 + rst $end
$var wire 1 , wr $end
$var wire 1 - rd $end
$var wire 8 . din [7:0] $end
$var reg 8 / dout [7:0] $end
$var wire 1 0 empty $end
$var wire 1 1 full $end
$var reg 4 2 wptr [3:0] $end
$var reg 4 3 rptr [3:0] $end
$var reg 5 4 cnt [4:0] $end
$upscope $end
$upscope $end
$enddefinitions $end

#0
$dumpvars
b100001110101100000000000111000 !
0"
0#
0$
0%
1&
b0 '
bx (
1)
0*
1+
0,
0-
b0 .
bx /
10
01
b0 2
b0 3
b0 4
$end

#10000
1"
1*

#20000
0"
0*

#30000
1"
1*

#40000
0"
0*

#50000
1"
1*

#60000
0"
0*

#70000
1"
1*

#80000
0"
0*

#90000
1"
0)
1*
0+

#100000
0"
0*

#110000
1"
1#
1*
1-

#120000
0"
0*

#130000
1"
0#
1*
0-

#140000
0"
0*

#150000
1"
1*

#160000
0"
0*

#170000
1"
1#
1*
1-

#180000
0"
0*

#190000
1"
0#
1*
0-

#200000
0"
0*

#210000
1"
1*

#220000
0"
0*

#230000
1"
1$
b101 '
1*
1,
b101 .

#240000
0"
0*

#250000
1"
0$
0&
1*
0,
00
b1 2
b1 4

#260000
0"
0*

#270000
1"
1*

#280000
0"
0*

#290000
1"
1$
b11 '
1*
1,
b11 .

#300000
0"
0*

#310000
1"
0$
1*
0,
b10 2
b10 4

#320000
0"
0*

#330000
1"
1*

#340000
0"
0*

#350000
1"
1$
1*
1,

#360000
0"
0*

#370000
1"
0$
1*
0,
b11 2
b11 4

#380000
0"
0*

#390000
1"
1*

#400000
0"
0*

#410000
1"
1$
b101 '
1*
1,
b101 .

#420000
0"
0*

#430000
1"
0$
1*
0,
b100 2
b100 4

#440000
0"
0*

#450000
1"
1*

#460000
0"
0*

#470000
1"
1#
1*
1-

#480000
0"
0*

#490000
1"
0#
b101 (
1*
0-
b101 /
b1 3
b11 4

#500000
0"
0*

#510000
1"
1*

#520000
0"
0*

#530000
1"
1#
1*
1-

#540000
0"
0*

#550000
1"
0#
b11 (
1*
0-
b11 /
b10 3
b10 4

#560000
0"
0*

#570000
1"
1*

#580000
0"
0*

#590000
1"
1#
1*
1-

#600000
0"
0*

#610000
1"
0#
1*
0-
b11 3
b1 4

#620000
0"
0*

#630000
1"
1*

#640000
0"
0*

#650000
1"
1#
1*
1-

#660000
0"
0*

#670000
1"
0#
1&
b101 (
1*
0-
b101 /
10
b100 3
b0 4

